LISTA-2 DE MACROECONOMIA APLICADA (Prof. Marcel Ribeiro)
…
# Questão 1. VAR Projeção 
#Colete dados mensais da taxa anual de  #inflação anual medida pelo IPCA, taxa nominal de juros anualizada (SELIC) e
#IBC-BR para o Brasil. Construa a base de dados mais longa que conseguir.

#####################################################################################################
# Preparar os dados
######################################################################################################

Dados <- read_excel("./Dados.xlsx", 
                    col_types = c("numeric", "numeric", "date", 
                                  "numeric", "numeric", "numeric"))
Dados

## # A tibble: 517 x 6
##      Ano   Mês Data                         IPCA IBCBR SELIC
##    <dbl> <dbl> <dttm>                      <dbl> <dbl> <dbl>
##  1  1979    12 1979-12-01 00:00:00 0.00000000762    NA    NA
##  2  1980     1 1980-01-01 00:00:00 0.00000000812    NA    NA
##  3  1980     2 1980-02-01 00:00:00 0.00000000850    NA    NA
##  4  1980     3 1980-03-01 00:00:00 0.00000000901    NA    NA
##  5  1980     4 1980-04-01 00:00:00 0.00000000949    NA    NA
##  6  1980     5 1980-05-01 00:00:00 0.0000000100     NA    NA
##  7  1980     6 1980-06-01 00:00:00 0.0000000106     NA    NA
##  8  1980     7 1980-07-01 00:00:00 0.0000000111     NA    NA
##  9  1980     8 1980-08-01 00:00:00 0.0000000117     NA    NA
## 10  1980     9 1980-09-01 00:00:00 0.0000000122     NA    NA
## # ... with 507 more rows
…
